<svg width="24" height="25" viewBox="0 0 24 25" fill="none" xmlns="http://www.w3.org/2000/svg">
<path d="M12 20.3674L13.41 18.9574L7.83 13.3674L20 13.3674L20 11.3674L7.83 11.3674L13.42 5.78737L12 4.36737L4 12.3674L12 20.3674Z" fill="black"/>
</svg>
